<?xml version="1.0" encoding="UTF-8" standalone="no"?>
<svg
   xmlns:dc="http://purl.org/dc/elements/1.1/"
   xmlns:cc="http://creativecommons.org/ns#"
   xmlns:rdf="http://www.w3.org/1999/02/22-rdf-syntax-ns#"
   xmlns:svg="http://www.w3.org/2000/svg"
   xmlns="http://www.w3.org/2000/svg"
   xmlns:sodipodi="http://sodipodi.sourceforge.net/DTD/sodipodi-0.dtd"
   xmlns:inkscape="http://www.inkscape.org/namespaces/inkscape"
   sodipodi:docname="elements-f04.svg"
   inkscape:version="1.0beta1 (a4ee55bc41, 2019-11-15)"
   sodipodi:version="0.32"
   id="svg2069"
   viewBox="0 0 300 100"
   height="100"
   width="300"
   version="1.1">
  <defs
     id="defs3" />
  <sodipodi:namedview
     inkscape:window-maximized="1"
     inkscape:window-y="27"
     inkscape:window-x="54"
     inkscape:window-height="1016"
     inkscape:window-width="1866"
     inkscape:guide-bbox="true"
     showguides="true"
     units="px"
     showgrid="false"
     inkscape:document-rotation="0"
     inkscape:current-layer="layer1"
     inkscape:document-units="px"
     inkscape:cy="50"
     inkscape:cx="160"
     inkscape:zoom="1.4"
     inkscape:pageshadow="2"
     inkscape:pageopacity="0.0"
     borderopacity="1.0"
     bordercolor="#666666"
     pagecolor="#ffffff"
     id="base"
     inkscape:lockguides="true" />
  <metadata
     id="metadata4">
    <rdf:RDF>
      <cc:Work
         rdf:about="">
        <dc:format>image/svg+xml</dc:format>
        <dc:type
           rdf:resource="http://purl.org/dc/dcmitype/StillImage" />
        <dc:title />
      </cc:Work>
    </rdf:RDF>
  </metadata>
  <g
     id="layer1"
     inkscape:groupmode="layer"
     inkscape:label="Layer 1">
    <rect
       y="0.24454047"
       x="0.24454901"
       height="99.125145"
       width="299.51089"
       id="rect1955"
       style="fill:none;fill-rule:evenodd;stroke:#000000;stroke-width:0.489098" />
    <text
       transform="scale(0.999982,1.000018)"
       id="text3148"
       y="93.976639"
       x="67.585907"
       style="font-style:normal;font-variant:normal;font-weight:bold;font-stretch:normal;font-size:11.778px;line-height:0%;font-family:'Liberation Sans',Arial,sans-serif;writing-mode:lr-tb;text-anchor:start;fill:#000000;fill-opacity:1;stroke-width:2.94449pt"
       xml:space="preserve"><tspan
         style="font-size:120.041px;line-height:1;fill:#000000;fill-opacity:1;stroke-width:2.94449pt"
         dy="0 0 0 0 0 0 0 0"
         dx="0 0 0 0 0 0 0 0"
         id="tspan3149"
         sodipodi:role="line"
         y="93.976639"
         x="67.585907">BIG</tspan></text>
    <text
       transform="scale(0.999982,1.000018)"
       id="text3154"
       y="93.882477"
       x="41.980042"
       style="font-style:normal;font-variant:normal;font-weight:bold;font-stretch:normal;font-size:11.778px;line-height:0%;font-family:'Liberation Sans',Arial,sans-serif;writing-mode:lr-tb;text-anchor:start;fill:#000000;fill-opacity:1;stroke-width:2.94449pt"
       xml:space="preserve"><tspan
         style="font-size:9.89016px;line-height:1;fill:#000000;fill-opacity:1;stroke-width:2.94449pt"
         dy="0 0 0 0 0 0 0 0 0 0 0 0"
         dx="0 0 0 0 0 0 0 0 0 0 0 0"
         id="tspan3155"
         sodipodi:role="line"
         y="93.882477"
         x="41.980042">small</tspan></text>
  </g>
</svg>
