<?xml version="1.0" encoding="UTF-8" standalone="no"?>
<svg
   xmlns:dc="http://purl.org/dc/elements/1.1/"
   xmlns:cc="http://creativecommons.org/ns#"
   xmlns:rdf="http://www.w3.org/1999/02/22-rdf-syntax-ns#"
   xmlns:svg="http://www.w3.org/2000/svg"
   xmlns="http://www.w3.org/2000/svg"
   xmlns:sodipodi="http://sodipodi.sourceforge.net/DTD/sodipodi-0.dtd"
   xmlns:inkscape="http://www.inkscape.org/namespaces/inkscape"
   sodipodi:docname="basic-f06.svg"
   inkscape:version="1.0beta1 (459877fba3, 2019-11-14)"
   sodipodi:version="0.32"
   id="svg2928"
   viewBox="0 0 300 68"
   height="68"
   width="300"
   version="1.1">
  <defs
     id="defs3" />
  <sodipodi:namedview
     inkscape:window-maximized="0"
     inkscape:window-y="27"
     inkscape:window-x="54"
     inkscape:window-height="1053"
     inkscape:window-width="1866"
     inkscape:guide-bbox="true"
     showguides="true"
     units="px"
     showgrid="false"
     inkscape:document-rotation="0"
     inkscape:current-layer="layer1"
     inkscape:document-units="px"
     inkscape:cy="30.612135"
     inkscape:cx="401.89836"
     inkscape:zoom="1.4"
     inkscape:pageshadow="2"
     inkscape:pageopacity="0.0"
     borderopacity="1.0"
     bordercolor="#666666"
     pagecolor="#ffffff"
     id="base"
     inkscape:lockguides="true" />
  <metadata
     id="metadata4">
    <rdf:RDF>
      <cc:Work
         rdf:about="">
        <dc:format>image/svg+xml</dc:format>
        <dc:type
           rdf:resource="http://purl.org/dc/dcmitype/StillImage" />
        <dc:title />
      </cc:Work>
    </rdf:RDF>
  </metadata>
  <g
     id="layer1"
     inkscape:groupmode="layer"
     inkscape:label="Layer 1">
    <path
       style="font-size:12px;fill:#0000ff;fill-opacity:0.75;fill-rule:evenodd;stroke:#000000;stroke-width:1pt"
       d="M 24.926786,22.484795 H 56.451673 V 55.761066 H 24.926786 Z"
       id="rect1370"
       inkscape:connector-curvature="0" />
    <path
       style="font-size:12px;fill:#ff0000;fill-opacity:0.75;fill-rule:evenodd;stroke:#000000;stroke-width:1pt"
       d="m 77.557001,19.387 c 0,9.8339 -9.80151,17.8058 -21.89228,17.8058 -12.09077,0 -21.892282,-7.9719 -21.892282,-17.8058 0,-9.8338 9.801512,-17.8057 21.892282,-17.8057 12.09077,0 21.89228,7.9719 21.89228,17.8057 z"
       id="path1371"
       inkscape:connector-curvature="0" />
    <path
       style="font-size:12px;fill:#ffff00;fill-opacity:0.75;fill-rule:evenodd;stroke:#000000;stroke-width:1pt"
       d="m 109.53987,59.1508 -15.237869,-3.72 -11.70303,10.4437 -1.17083,-15.6417 -13.54896,-7.9029 14.51426,-5.9471 3.32931,-15.328 10.14114,11.9662 15.606579,-1.5703 -8.24669,13.3426 z"
       id="polygon1372"
       inkscape:connector-curvature="0" />
    <g
       transform="translate(1.6673913,-1456.949)"
       id="g1376">
      <path
         style="font-size:12px;fill:#0000ff;fill-opacity:0.75;fill-rule:evenodd;stroke:#000000;stroke-width:1pt"
         d="m 186.25153,1479.4336 h 31.52488 v 33.2763 h -31.52488 z"
         id="rect1373"
         inkscape:connector-curvature="0" />
      <path
         transform="translate(104.0253,224.6495)"
         style="font-size:12px;fill:#ff0000;fill-opacity:0.75;fill-rule:evenodd;stroke:#000000;stroke-width:1pt"
         d="m 134.85646,1251.686 c 0,9.8339 -9.80151,17.8058 -21.89228,17.8058 -12.09077,0 -21.892282,-7.9719 -21.892282,-17.8058 0,-9.8338 9.801512,-17.8057 21.892282,-17.8057 12.09077,0 21.89228,7.9719 21.89228,17.8057 z"
         id="path1374"
         inkscape:connector-curvature="0" />
      <path
         transform="translate(86.38563,261.2024)"
         style="font-size:12px;fill:#ffff00;fill-opacity:0.75;fill-rule:evenodd;stroke:#000000;stroke-width:1pt"
         d="m 184.47897,1254.8968 -15.23787,-3.72 -11.70303,10.4437 -1.17083,-15.6417 -13.54896,-7.9029 14.51426,-5.9471 3.32931,-15.328 10.14114,11.9662 15.60658,-1.5703 -8.24669,13.3426 z"
         id="polygon1375"
         inkscape:connector-curvature="0" />
    </g>
  </g>
</svg>
