<?xml version="1.0" encoding="UTF-8" standalone="no"?>
<svg
   xmlns:dc="http://purl.org/dc/elements/1.1/"
   xmlns:cc="http://creativecommons.org/ns#"
   xmlns:rdf="http://www.w3.org/1999/02/22-rdf-syntax-ns#"
   xmlns:svg="http://www.w3.org/2000/svg"
   xmlns="http://www.w3.org/2000/svg"
   xmlns:xlink="http://www.w3.org/1999/xlink"
   xmlns:sodipodi="http://sodipodi.sourceforge.net/DTD/sodipodi-0.dtd"
   xmlns:inkscape="http://www.inkscape.org/namespaces/inkscape"
   width="300"
   height="118"
   id="svg3254"
   viewBox="0 0 300 118"
   sodipodi:version="0.32"
   inkscape:version="1.0beta1 (a4ee55bc41, 2019-11-15)"
   sodipodi:docname="tips-f01.svg"
   version="1.1">
  <defs
     id="defs3" />
  <sodipodi:namedview
     inkscape:window-maximized="0"
     inkscape:window-y="27"
     inkscape:window-x="54"
     inkscape:window-height="1053"
     inkscape:window-width="1866"
     inkscape:guide-bbox="true"
     showguides="true"
     units="px"
     showgrid="false"
     inkscape:document-rotation="0"
     inkscape:current-layer="layer1"
     inkscape:document-units="px"
     inkscape:cy="59"
     inkscape:cx="160"
     inkscape:zoom="1.4"
     inkscape:pageshadow="2"
     inkscape:pageopacity="0.0"
     borderopacity="1.0"
     bordercolor="#666666"
     pagecolor="#ffffff"
     id="base"
     inkscape:lockguides="true" />
  <metadata
     id="metadata4">
    <rdf:RDF>
      <cc:Work
         rdf:about="">
        <dc:format>image/svg+xml</dc:format>
        <dc:type
           rdf:resource="http://purl.org/dc/dcmitype/StillImage" />
        <dc:title />
      </cc:Work>
    </rdf:RDF>
  </metadata>
  <g
     inkscape:label="Layer 1"
     inkscape:groupmode="layer"
     id="layer1">
    <path
       inkscape:tile-cy="346.50000"
       inkscape:tile-cx="160.25000"
       inkscape:tile-h="0.30000001"
       inkscape:tile-w="117.80000"
       id="path25"
       d="m 91.25,58.9 h 117.5"
       style="color:#000000;display:inline;overflow:visible;visibility:visible;fill:none;fill-opacity:0.75;fill-rule:evenodd;stroke:#000000;stroke-width:0.3;stroke-linecap:butt;stroke-linejoin:miter;stroke-miterlimit:4;stroke-dashoffset:0;stroke-opacity:1;marker:none;marker-start:none;marker-mid:none;marker-end:none"
       inkscape:connector-curvature="0" />
    <use
       height="1052.3622"
       width="744.09448"
       id="use55"
       transform="rotate(5.999973,150.0004,58.901709)"
       xlink:href="#path25"
       inkscape:tiled-clone-of="#path25"
       y="0"
       x="0" />
    <use
       height="1052.3622"
       width="744.09448"
       id="use56"
       transform="rotate(12.000013,149.9991,58.899904)"
       xlink:href="#path25"
       inkscape:tiled-clone-of="#path25"
       y="0"
       x="0" />
    <use
       height="1052.3622"
       width="744.09448"
       id="use57"
       transform="rotate(17.999992,149.99954,58.900374)"
       xlink:href="#path25"
       inkscape:tiled-clone-of="#path25"
       y="0"
       x="0" />
    <use
       height="1052.3622"
       width="744.09448"
       id="use58"
       transform="rotate(24.000029,150.00016,58.899517)"
       xlink:href="#path25"
       inkscape:tiled-clone-of="#path25"
       y="0"
       x="0" />
    <use
       height="1052.3622"
       width="744.09448"
       id="use59"
       transform="rotate(30.000012,150.00021,58.899756)"
       xlink:href="#path25"
       inkscape:tiled-clone-of="#path25"
       y="0"
       x="0" />
    <use
       height="1052.3622"
       width="744.09448"
       id="use60"
       transform="rotate(35.999988,150.0001,58.900083)"
       xlink:href="#path25"
       inkscape:tiled-clone-of="#path25"
       y="0"
       x="0" />
    <use
       height="1052.3622"
       width="744.09448"
       id="use61"
       transform="rotate(42.00001,149.99978,58.899919)"
       xlink:href="#path25"
       inkscape:tiled-clone-of="#path25"
       y="0"
       x="0" />
    <use
       height="1052.3622"
       width="744.09448"
       id="use62"
       transform="rotate(47.99999,149.99982,58.900084)"
       xlink:href="#path25"
       inkscape:tiled-clone-of="#path25"
       y="0"
       x="0" />
    <use
       height="1052.3622"
       width="744.09448"
       id="use63"
       transform="rotate(54.000012,150.00006,58.899901)"
       xlink:href="#path25"
       inkscape:tiled-clone-of="#path25"
       y="0"
       x="0" />
    <use
       height="1052.3622"
       width="744.09448"
       id="use64"
       transform="rotate(59.999988,150.00014,58.900064)"
       xlink:href="#path25"
       inkscape:tiled-clone-of="#path25"
       y="0"
       x="0" />
    <use
       height="1052.3622"
       width="744.09448"
       id="use65"
       transform="rotate(65.999971,150.00006,58.900251)"
       xlink:href="#path25"
       inkscape:tiled-clone-of="#path25"
       y="0"
       x="0" />
    <use
       height="1052.3622"
       width="744.09448"
       id="use66"
       transform="rotate(72.000008,149.99983,58.899889)"
       xlink:href="#path25"
       inkscape:tiled-clone-of="#path25"
       y="0"
       x="0" />
    <use
       height="1052.3622"
       width="744.09448"
       id="use67"
       transform="rotate(77.999987,149.99984,58.899969)"
       xlink:href="#path25"
       inkscape:tiled-clone-of="#path25"
       y="0"
       x="0" />
    <use
       height="1052.3622"
       width="744.09448"
       id="use68"
       transform="rotate(84.000027,150.00003,58.899978)"
       xlink:href="#path25"
       inkscape:tiled-clone-of="#path25"
       y="0"
       x="0" />
    <use
       height="1052.3622"
       width="744.09448"
       id="use69"
       transform="rotate(90,150,58.9)"
       xlink:href="#path25"
       inkscape:tiled-clone-of="#path25"
       y="0"
       x="0" />
    <use
       height="1052.3622"
       width="744.09448"
       id="use70"
       transform="rotate(95.999973,149.99991,58.900102)"
       xlink:href="#path25"
       inkscape:tiled-clone-of="#path25"
       y="0"
       x="0" />
    <use
       height="1052.3622"
       width="744.09448"
       id="use71"
       transform="rotate(102.00001,149.99995,58.899884)"
       xlink:href="#path25"
       inkscape:tiled-clone-of="#path25"
       y="0"
       x="0" />
    <use
       height="1052.3622"
       width="744.09448"
       id="use72"
       transform="rotate(107.99999,149.99992,58.900013)"
       xlink:href="#path25"
       inkscape:tiled-clone-of="#path25"
       y="0"
       x="0" />
    <use
       height="1052.3622"
       width="744.09448"
       id="use73"
       transform="rotate(114.00003,150.00013,58.899952)"
       xlink:href="#path25"
       inkscape:tiled-clone-of="#path25"
       y="0"
       x="0" />
    <use
       height="1052.3622"
       width="744.09448"
       id="use74"
       transform="rotate(120.00001,150.00009,58.89999)"
       xlink:href="#path25"
       inkscape:tiled-clone-of="#path25"
       y="0"
       x="0" />
    <use
       height="1052.3622"
       width="744.09448"
       id="use75"
       transform="rotate(125.99999,150.00001,58.900047)"
       xlink:href="#path25"
       inkscape:tiled-clone-of="#path25"
       y="0"
       x="0" />
    <use
       height="1052.3622"
       width="744.09448"
       id="use76"
       transform="rotate(132.00001,149.99999,58.899931)"
       xlink:href="#path25"
       inkscape:tiled-clone-of="#path25"
       y="0"
       x="0" />
    <use
       height="1052.3622"
       width="744.09448"
       id="use77"
       transform="rotate(137.99999,149.9999,58.899961)"
       xlink:href="#path25"
       inkscape:tiled-clone-of="#path25"
       y="0"
       x="0" />
    <use
       height="1052.3622"
       width="744.09448"
       id="use78"
       transform="rotate(144.00001,150.00007,58.899998)"
       xlink:href="#path25"
       inkscape:tiled-clone-of="#path25"
       y="0"
       x="0" />
    <use
       height="1052.3622"
       width="744.09448"
       id="use79"
       transform="rotate(149.99999,150.00003,58.900081)"
       xlink:href="#path25"
       inkscape:tiled-clone-of="#path25"
       y="0"
       x="0" />
    <use
       height="1052.3622"
       width="744.09448"
       id="use80"
       transform="rotate(155.99997,149.99992,58.900122)"
       xlink:href="#path25"
       inkscape:tiled-clone-of="#path25"
       y="0"
       x="0" />
    <use
       height="1052.3622"
       width="744.09448"
       id="use81"
       transform="rotate(162.00001,149.99999,58.89991)"
       xlink:href="#path25"
       inkscape:tiled-clone-of="#path25"
       y="0"
       x="0" />
    <use
       height="1052.3622"
       width="744.09448"
       id="use82"
       transform="rotate(167.99999,149.99992,58.899951)"
       xlink:href="#path25"
       inkscape:tiled-clone-of="#path25"
       y="0"
       x="0" />
    <use
       height="1052.3622"
       width="744.09448"
       id="use83"
       transform="rotate(174.00003,150.00004,58.900005)"
       xlink:href="#path25"
       inkscape:tiled-clone-of="#path25"
       y="0"
       x="0" />
  </g>
</svg>
