<?xml version="1.0" encoding="UTF-8" standalone="no"?>
<svg
   xmlns:dc="http://purl.org/dc/elements/1.1/"
   xmlns:cc="http://creativecommons.org/ns#"
   xmlns:rdf="http://www.w3.org/1999/02/22-rdf-syntax-ns#"
   xmlns:svg="http://www.w3.org/2000/svg"
   xmlns="http://www.w3.org/2000/svg"
   xmlns:sodipodi="http://sodipodi.sourceforge.net/DTD/sodipodi-0.dtd"
   xmlns:inkscape="http://www.inkscape.org/namespaces/inkscape"
   version="1.1"
   width="300"
   height="52"
   viewBox="0 0 300 52"
   id="svg1910"
   sodipodi:version="0.32"
   inkscape:version="1.0beta1 (a4ee55bc41, 2019-11-15)"
   sodipodi:docname="advanced-f03.svg">
  <defs
     id="defs3" />
  <sodipodi:namedview
     inkscape:lockguides="true"
     id="base"
     pagecolor="#ffffff"
     bordercolor="#666666"
     borderopacity="1.0"
     inkscape:pageopacity="0.0"
     inkscape:pageshadow="2"
     inkscape:zoom="1.4"
     inkscape:cx="354.26037"
     inkscape:cy="32.064709"
     inkscape:document-units="px"
     inkscape:current-layer="layer1"
     inkscape:document-rotation="0"
     showgrid="false"
     units="px"
     showguides="true"
     inkscape:guide-bbox="true"
     inkscape:window-width="1866"
     inkscape:window-height="1053"
     inkscape:window-x="54"
     inkscape:window-y="27"
     inkscape:window-maximized="0" />
  <metadata
     id="metadata4">
    <rdf:RDF>
      <cc:Work
         rdf:about="">
        <dc:format>image/svg+xml</dc:format>
        <dc:type
           rdf:resource="http://purl.org/dc/dcmitype/StillImage" />
        <dc:title />
      </cc:Work>
    </rdf:RDF>
  </metadata>
  <g
     inkscape:label="Layer 1"
     inkscape:groupmode="layer"
     id="layer1">
    <path
       inkscape:connector-curvature="0"
       style="font-size:12px;fill:none;fill-opacity:0.75;fill-rule:evenodd;stroke:#000000;stroke-width:1.25287pt"
       d="M 61.131755,24.796951 C 74.262658,17.294681 91.110002,4.7414808 105.40971,9.5549808 c 11.14491,3.7517002 27.09893,30.2875702 1.036,38.4094702 9.95698,6.45327 24.035,1.2934 35.26489,-3.8125 23.27034,-10.3795 33.24551,-27.43857 66.29533,-28.88447 12.58297,-0.7092 32.57937,5.16817 30.25988,17.36037 -1.719,9.0359 -19.98651,6.9789 -28.85139,3.3501 -25.21589,-10.9448 -12.65892,-30.4100702 -33.27164,-34.6041702 -9.52389,-2.14200001 -21.2562,1.3591 -27.36069,13.4964002"
       id="path1235"
       sodipodi:nodetypes="cscsscsss" />
  </g>
</svg>
